# WPPM package installation log
# 
# Package: celery v3.1.18

Lib\site-packages\celery
Lib\site-packages\celery-3.1.18-py3.4.egg-info
Lib\site-packages\celery\app
Lib\site-packages\celery\apps
Lib\site-packages\celery\backends
Lib\site-packages\celery\bin
Lib\site-packages\celery\concurrency
Lib\site-packages\celery\contrib
Lib\site-packages\celery\events
Lib\site-packages\celery\fixups
Lib\site-packages\celery\loaders
Lib\site-packages\celery\security
Lib\site-packages\celery\task
Lib\site-packages\celery\tests
Lib\site-packages\celery\utils
Lib\site-packages\celery\worker
Lib\site-packages\celery\beat.py
Lib\site-packages\celery\bootsteps.py
Lib\site-packages\celery\canvas.py
Lib\site-packages\celery\datastructures.py
Lib\site-packages\celery\exceptions.py
Lib\site-packages\celery\five.py
Lib\site-packages\celery\local.py
Lib\site-packages\celery\platforms.py
Lib\site-packages\celery\result.py
Lib\site-packages\celery\schedules.py
Lib\site-packages\celery\signals.py
Lib\site-packages\celery\states.py
Lib\site-packages\celery\_state.py
Lib\site-packages\celery\__init__.py
Lib\site-packages\celery\__main__.py
Lib\site-packages\celery\app\amqp.py
Lib\site-packages\celery\app\annotations.py
Lib\site-packages\celery\app\base.py
Lib\site-packages\celery\app\builtins.py
Lib\site-packages\celery\app\control.py
Lib\site-packages\celery\app\defaults.py
Lib\site-packages\celery\app\log.py
Lib\site-packages\celery\app\registry.py
Lib\site-packages\celery\app\routes.py
Lib\site-packages\celery\app\task.py
Lib\site-packages\celery\app\trace.py
Lib\site-packages\celery\app\utils.py
Lib\site-packages\celery\app\__init__.py
Lib\site-packages\celery\apps\beat.py
Lib\site-packages\celery\apps\worker.py
Lib\site-packages\celery\apps\__init__.py
Lib\site-packages\celery\backends\database
Lib\site-packages\celery\backends\amqp.py
Lib\site-packages\celery\backends\base.py
Lib\site-packages\celery\backends\cache.py
Lib\site-packages\celery\backends\cassandra.py
Lib\site-packages\celery\backends\couchbase.py
Lib\site-packages\celery\backends\mongodb.py
Lib\site-packages\celery\backends\redis.py
Lib\site-packages\celery\backends\rpc.py
Lib\site-packages\celery\backends\__init__.py
Lib\site-packages\celery\backends\database\models.py
Lib\site-packages\celery\backends\database\session.py
Lib\site-packages\celery\backends\database\__init__.py
Lib\site-packages\celery\bin\amqp.py
Lib\site-packages\celery\bin\base.py
Lib\site-packages\celery\bin\beat.py
Lib\site-packages\celery\bin\celery.py
Lib\site-packages\celery\bin\celeryd_detach.py
Lib\site-packages\celery\bin\events.py
Lib\site-packages\celery\bin\graph.py
Lib\site-packages\celery\bin\multi.py
Lib\site-packages\celery\bin\worker.py
Lib\site-packages\celery\bin\__init__.py
Lib\site-packages\celery\concurrency\asynpool.py
Lib\site-packages\celery\concurrency\base.py
Lib\site-packages\celery\concurrency\eventlet.py
Lib\site-packages\celery\concurrency\gevent.py
Lib\site-packages\celery\concurrency\prefork.py
Lib\site-packages\celery\concurrency\solo.py
Lib\site-packages\celery\concurrency\threads.py
Lib\site-packages\celery\concurrency\__init__.py
Lib\site-packages\celery\contrib\abortable.py
Lib\site-packages\celery\contrib\batches.py
Lib\site-packages\celery\contrib\methods.py
Lib\site-packages\celery\contrib\migrate.py
Lib\site-packages\celery\contrib\rdb.py
Lib\site-packages\celery\contrib\sphinx.py
Lib\site-packages\celery\contrib\__init__.py
Lib\site-packages\celery\events\cursesmon.py
Lib\site-packages\celery\events\dumper.py
Lib\site-packages\celery\events\snapshot.py
Lib\site-packages\celery\events\state.py
Lib\site-packages\celery\events\__init__.py
Lib\site-packages\celery\fixups\django.py
Lib\site-packages\celery\fixups\__init__.py
Lib\site-packages\celery\loaders\app.py
Lib\site-packages\celery\loaders\base.py
Lib\site-packages\celery\loaders\default.py
Lib\site-packages\celery\loaders\__init__.py
Lib\site-packages\celery\security\certificate.py
Lib\site-packages\celery\security\key.py
Lib\site-packages\celery\security\serialization.py
Lib\site-packages\celery\security\utils.py
Lib\site-packages\celery\security\__init__.py
Lib\site-packages\celery\task\base.py
Lib\site-packages\celery\task\http.py
Lib\site-packages\celery\task\sets.py
Lib\site-packages\celery\task\trace.py
Lib\site-packages\celery\task\__init__.py
Lib\site-packages\celery\tests\app
Lib\site-packages\celery\tests\backends
Lib\site-packages\celery\tests\bin
Lib\site-packages\celery\tests\compat_modules
Lib\site-packages\celery\tests\concurrency
Lib\site-packages\celery\tests\contrib
Lib\site-packages\celery\tests\events
Lib\site-packages\celery\tests\fixups
Lib\site-packages\celery\tests\functional
Lib\site-packages\celery\tests\security
Lib\site-packages\celery\tests\slow
Lib\site-packages\celery\tests\tasks
Lib\site-packages\celery\tests\utils
Lib\site-packages\celery\tests\worker
Lib\site-packages\celery\tests\case.py
Lib\site-packages\celery\tests\__init__.py
Lib\site-packages\celery\tests\app\test_amqp.py
Lib\site-packages\celery\tests\app\test_annotations.py
Lib\site-packages\celery\tests\app\test_app.py
Lib\site-packages\celery\tests\app\test_beat.py
Lib\site-packages\celery\tests\app\test_builtins.py
Lib\site-packages\celery\tests\app\test_celery.py
Lib\site-packages\celery\tests\app\test_control.py
Lib\site-packages\celery\tests\app\test_defaults.py
Lib\site-packages\celery\tests\app\test_exceptions.py
Lib\site-packages\celery\tests\app\test_loaders.py
Lib\site-packages\celery\tests\app\test_log.py
Lib\site-packages\celery\tests\app\test_registry.py
Lib\site-packages\celery\tests\app\test_routes.py
Lib\site-packages\celery\tests\app\test_schedules.py
Lib\site-packages\celery\tests\app\test_utils.py
Lib\site-packages\celery\tests\app\__init__.py
Lib\site-packages\celery\tests\backends\test_amqp.py
Lib\site-packages\celery\tests\backends\test_backends.py
Lib\site-packages\celery\tests\backends\test_base.py
Lib\site-packages\celery\tests\backends\test_cache.py
Lib\site-packages\celery\tests\backends\test_cassandra.py
Lib\site-packages\celery\tests\backends\test_couchbase.py
Lib\site-packages\celery\tests\backends\test_database.py
Lib\site-packages\celery\tests\backends\test_mongodb.py
Lib\site-packages\celery\tests\backends\test_redis.py
Lib\site-packages\celery\tests\backends\test_rpc.py
Lib\site-packages\celery\tests\backends\__init__.py
Lib\site-packages\celery\tests\bin\proj
Lib\site-packages\celery\tests\bin\test_amqp.py
Lib\site-packages\celery\tests\bin\test_base.py
Lib\site-packages\celery\tests\bin\test_beat.py
Lib\site-packages\celery\tests\bin\test_celery.py
Lib\site-packages\celery\tests\bin\test_celeryd_detach.py
Lib\site-packages\celery\tests\bin\test_celeryevdump.py
Lib\site-packages\celery\tests\bin\test_events.py
Lib\site-packages\celery\tests\bin\test_multi.py
Lib\site-packages\celery\tests\bin\test_worker.py
Lib\site-packages\celery\tests\bin\__init__.py
Lib\site-packages\celery\tests\bin\proj\app.py
Lib\site-packages\celery\tests\bin\proj\__init__.py
Lib\site-packages\celery\tests\compat_modules\test_compat.py
Lib\site-packages\celery\tests\compat_modules\test_compat_utils.py
Lib\site-packages\celery\tests\compat_modules\test_decorators.py
Lib\site-packages\celery\tests\compat_modules\test_http.py
Lib\site-packages\celery\tests\compat_modules\test_messaging.py
Lib\site-packages\celery\tests\compat_modules\test_sets.py
Lib\site-packages\celery\tests\compat_modules\__init__.py
Lib\site-packages\celery\tests\concurrency\test_concurrency.py
Lib\site-packages\celery\tests\concurrency\test_eventlet.py
Lib\site-packages\celery\tests\concurrency\test_gevent.py
Lib\site-packages\celery\tests\concurrency\test_pool.py
Lib\site-packages\celery\tests\concurrency\test_prefork.py
Lib\site-packages\celery\tests\concurrency\test_solo.py
Lib\site-packages\celery\tests\concurrency\test_threads.py
Lib\site-packages\celery\tests\concurrency\__init__.py
Lib\site-packages\celery\tests\contrib\test_abortable.py
Lib\site-packages\celery\tests\contrib\test_methods.py
Lib\site-packages\celery\tests\contrib\test_migrate.py
Lib\site-packages\celery\tests\contrib\test_rdb.py
Lib\site-packages\celery\tests\contrib\__init__.py
Lib\site-packages\celery\tests\events\test_cursesmon.py
Lib\site-packages\celery\tests\events\test_events.py
Lib\site-packages\celery\tests\events\test_snapshot.py
Lib\site-packages\celery\tests\events\test_state.py
Lib\site-packages\celery\tests\events\__init__.py
Lib\site-packages\celery\tests\fixups\test_django.py
Lib\site-packages\celery\tests\fixups\__init__.py
Lib\site-packages\celery\tests\functional\case.py
Lib\site-packages\celery\tests\functional\tasks.py
Lib\site-packages\celery\tests\functional\__init__.py
Lib\site-packages\celery\tests\security\case.py
Lib\site-packages\celery\tests\security\test_certificate.py
Lib\site-packages\celery\tests\security\test_key.py
Lib\site-packages\celery\tests\security\test_security.py
Lib\site-packages\celery\tests\security\test_serialization.py
Lib\site-packages\celery\tests\security\__init__.py
Lib\site-packages\celery\tests\slow\__init__.py
Lib\site-packages\celery\tests\tasks\test_canvas.py
Lib\site-packages\celery\tests\tasks\test_chord.py
Lib\site-packages\celery\tests\tasks\test_context.py
Lib\site-packages\celery\tests\tasks\test_result.py
Lib\site-packages\celery\tests\tasks\test_states.py
Lib\site-packages\celery\tests\tasks\test_tasks.py
Lib\site-packages\celery\tests\tasks\test_trace.py
Lib\site-packages\celery\tests\tasks\__init__.py
Lib\site-packages\celery\tests\utils\test_datastructures.py
Lib\site-packages\celery\tests\utils\test_dispatcher.py
Lib\site-packages\celery\tests\utils\test_encoding.py
Lib\site-packages\celery\tests\utils\test_functional.py
Lib\site-packages\celery\tests\utils\test_imports.py
Lib\site-packages\celery\tests\utils\test_local.py
Lib\site-packages\celery\tests\utils\test_mail.py
Lib\site-packages\celery\tests\utils\test_pickle.py
Lib\site-packages\celery\tests\utils\test_platforms.py
Lib\site-packages\celery\tests\utils\test_saferef.py
Lib\site-packages\celery\tests\utils\test_serialization.py
Lib\site-packages\celery\tests\utils\test_sysinfo.py
Lib\site-packages\celery\tests\utils\test_term.py
Lib\site-packages\celery\tests\utils\test_text.py
Lib\site-packages\celery\tests\utils\test_threads.py
Lib\site-packages\celery\tests\utils\test_timer2.py
Lib\site-packages\celery\tests\utils\test_timeutils.py
Lib\site-packages\celery\tests\utils\test_utils.py
Lib\site-packages\celery\tests\utils\__init__.py
Lib\site-packages\celery\tests\worker\test_autoreload.py
Lib\site-packages\celery\tests\worker\test_autoscale.py
Lib\site-packages\celery\tests\worker\test_bootsteps.py
Lib\site-packages\celery\tests\worker\test_components.py
Lib\site-packages\celery\tests\worker\test_consumer.py
Lib\site-packages\celery\tests\worker\test_control.py
Lib\site-packages\celery\tests\worker\test_heartbeat.py
Lib\site-packages\celery\tests\worker\test_hub.py
Lib\site-packages\celery\tests\worker\test_loops.py
Lib\site-packages\celery\tests\worker\test_request.py
Lib\site-packages\celery\tests\worker\test_revoke.py
Lib\site-packages\celery\tests\worker\test_state.py
Lib\site-packages\celery\tests\worker\test_strategy.py
Lib\site-packages\celery\tests\worker\test_worker.py
Lib\site-packages\celery\tests\worker\__init__.py
Lib\site-packages\celery\utils\dispatch
Lib\site-packages\celery\utils\compat.py
Lib\site-packages\celery\utils\debug.py
Lib\site-packages\celery\utils\encoding.py
Lib\site-packages\celery\utils\functional.py
Lib\site-packages\celery\utils\imports.py
Lib\site-packages\celery\utils\iso8601.py
Lib\site-packages\celery\utils\log.py
Lib\site-packages\celery\utils\mail.py
Lib\site-packages\celery\utils\objects.py
Lib\site-packages\celery\utils\serialization.py
Lib\site-packages\celery\utils\sysinfo.py
Lib\site-packages\celery\utils\term.py
Lib\site-packages\celery\utils\text.py
Lib\site-packages\celery\utils\threads.py
Lib\site-packages\celery\utils\timer2.py
Lib\site-packages\celery\utils\timeutils.py
Lib\site-packages\celery\utils\__init__.py
Lib\site-packages\celery\utils\dispatch\saferef.py
Lib\site-packages\celery\utils\dispatch\signal.py
Lib\site-packages\celery\utils\dispatch\__init__.py
Lib\site-packages\celery\worker\autoreload.py
Lib\site-packages\celery\worker\autoscale.py
Lib\site-packages\celery\worker\components.py
Lib\site-packages\celery\worker\consumer.py
Lib\site-packages\celery\worker\control.py
Lib\site-packages\celery\worker\heartbeat.py
Lib\site-packages\celery\worker\job.py
Lib\site-packages\celery\worker\loops.py
Lib\site-packages\celery\worker\pidbox.py
Lib\site-packages\celery\worker\state.py
Lib\site-packages\celery\worker\strategy.py
Lib\site-packages\celery\worker\__init__.py
Lib\site-packages\celery-3.1.18-py3.4.egg-info\dependency_links.txt
Lib\site-packages\celery-3.1.18-py3.4.egg-info\entry_points.txt
Lib\site-packages\celery-3.1.18-py3.4.egg-info\not-zip-safe
Lib\site-packages\celery-3.1.18-py3.4.egg-info\PKG-INFO
Lib\site-packages\celery-3.1.18-py3.4.egg-info\requires.txt
Lib\site-packages\celery-3.1.18-py3.4.egg-info\SOURCES.txt
Lib\site-packages\celery-3.1.18-py3.4.egg-info\top_level.txt
Scripts\celery-script.py
Scripts\celery-script.bat
Scripts\celery.exe
Scripts\celery.exe.manifest
Scripts\celerybeat-script.py
Scripts\celerybeat-script.bat
Scripts\celerybeat.exe
Scripts\celerybeat.exe.manifest
Scripts\celeryd-multi-script.py
Scripts\celeryd-multi-script.bat
Scripts\celeryd-multi.exe
Scripts\celeryd-multi.exe.manifest
Scripts\celeryd-script.py
Scripts\celeryd-script.bat
Scripts\celeryd.exe
Scripts\celeryd.exe.manifest